BSMM-lab-2
…
#summarize function use to find summary of each artist
the_tate %>% dplyr::group_by(the_tate$artistId) %>% 
dplyr::summarize(N=n(),min_yearworking= min(the_tate$year,na.rm = TRUE),
max_yearworking= max(the_tate$year,na.rm = TRUE),
min_aquistionyear=min(the_tate$acquisitionYear, na.rm = TRUE),
max_acquisitionyear=max(the_tate$year,na.rm = TRUE)  )

# A tibble: 3,342 × 6
   `the_tate$artistId`     N min_yearworking max_yearworking min_aquistionyear
                 <dbl> <int>           <dbl>           <dbl>             <dbl>
 1                   0     6            1545            2012              1823
 2                   1     2            1545            2012              1823
 3                   2     2            1545            2012              1823
 4                   3     5            1545            2012              1823
 5                   4     1            1545            2012              1823
 6                   5     1            1545            2012              1823
 7                   6     5            1545            2012              1823
 8                   7     2            1545            2012              1823
 9                   8     1            1545            2012              1823
10                   9     1            1545            2012              1823
# ℹ 3,332 more rows
# ℹ 1 more variable: max_acquisitionyear <dbl>
…
The missing year data likely to be classified as Missing At Random

(MAR)

#missing date
missing_dates <- sum(is.na(the_tate$year))
print(missing_dates)

[1] 5397

The number of artists whose works have missing dates is 461.

the_tate|>dplyr::filter(is.na(year))|>dplyr::distinct(artistId)

# A tibble: 462 × 1
   artistId
      <dbl>
 1       68
 2      278
 3      300
 4      433
 5      569
 6      531
 7      286
 8      502
 9      304
10      539
# ℹ 452 more rows
…
Exercise 7

# Load the required libraries
library(dplyr)

# Left join the tables and group the result by gender
gender_grouped<- the_tate %>%
  left_join(the_tate_artists, by = join_by(artistId == id)) %>%  filter(!is.na(gender)) %>% group_by(gender) 

# resulting table
gender_grouped

# A tibble: 68,501 × 29
# Groups:   gender [2]
      id accession_number artist       artistRole artistId title dateText medium
   <dbl> <chr>            <chr>        <chr>         <dbl> <chr> <chr>    <chr> 
 1 20400 P77527           Charlton, A… artist          891 [no … 1991     Scree…
 2 20618 P77580           Artschwager… artist          669 Inte… 1972     Scree…
 3 20830 P77612           Marden, Bri… artist         1578 [no … 1971     Etchi…
 4 21086 P77680           Francis, Ma… artist         2311 Unti… 1994     Monot…
 5 21163 P77699           Self, Colin  artist         1922 Powe… 1968     Scree…
 6 21157 P77704           Woodrow, Bi… artist         2170 [ind… 1994     Linoc…
 7 21153 P77708           Woodrow, Bi… artist         2170 Iron  1994     Linoc…
 8 21210 P77731           Sherman, Ci… artist         1938 Unti… 1982     Photo…
 9 21271 P77738           Wilding, Al… artist         2146 [no … 1994     Etchi…
10 21405 P77748           Struth, Tho… artist         2339 Vico… 1988     Photo…
# ℹ 68,491 more rows
# ℹ 21 more variables: creditLine <chr>, year <dbl>, acquisitionYear <dbl>,
#   dimensions <chr>, width <dbl>, height <dbl>, depth <dbl>, units <chr>,
#   inscription <chr>, thumbnailCopyright <chr>, thumbnailUrl <chr>,
#   url.x <chr>, area_cm2 <dbl>, name <chr>, gender <chr>, dates <chr>,
#   yearOfBirth <dbl>, yearOfDeath <dbl>, placeOfBirth <chr>,
#   placeOfDeath <chr>, url.y <chr>
…
